…
To get a list of station IDs, use  `cimis_station()`:


```r
cimis_station()
#> # A tibble: 1,406 x 15
#>    StationNbr Name  City  RegionalOffice County ConnectDate DisconnectDate
#>    <chr>      <chr> <chr> <chr>          <chr>  <chr>       <chr>         
#>  1 1          Fres~ Fres~ South Central~ Fresno 6/7/1982    9/25/1988     
#>  2 1          Fres~ Fres~ South Central~ Fresno 6/7/1982    9/25/1988     
#>  3 1          Fres~ Fres~ South Central~ Fresno 6/7/1982    9/25/1988     
#>  4 1          Fres~ Fres~ South Central~ Fresno 6/7/1982    9/25/1988     
#>  5 1          Fres~ Fres~ South Central~ Fresno 6/7/1982    9/25/1988     
#>  6 1          Fres~ Fres~ South Central~ Fresno 6/7/1982    9/25/1988     
#>  7 1          Fres~ Fres~ South Central~ Fresno 6/7/1982    9/25/1988     
#>  8 1          Fres~ Fres~ South Central~ Fresno 6/7/1982    9/25/1988     
#>  9 1          Fres~ Fres~ South Central~ Fresno 6/7/1982    9/25/1988     
#> 10 1          Fres~ Fres~ South Central~ Fresno 6/7/1982    9/25/1988     
#> # ... with 1,396 more rows, and 8 more variables: IsActive <chr>,
#> #   IsEtoStation <chr>, Elevation <chr>, GroundCover <chr>, HmsLatitude <chr>,
#> #   HmsLongitude <chr>, ZipCodes <chr>, SitingDesc <chr>
```

To get metadata for a subset of stations, simply pass a vector of 
station IDs. You can also query metadata for stations associated 
with a particular zipcode (or spatial zipcode) 
`cimis_zipcode()` and `cimis_spatial_zipcode()`:


```r
cimis_zipcode()
#> # A tibble: 1,406 x 5
#>    StationNbr ZipCode ConnectDate DisconnectDate IsActive
#>         <int> <chr>   <chr>       <chr>          <chr>   
#>  1         99 90401   12/11/1992  5/8/2050       True    
#>  2         99 90402   12/11/1992  5/8/2050       True    
#>  3         99 90403   12/11/1992  5/8/2050       True    
#>  4         99 90404   12/11/1992  5/8/2050       True    
#>  5         99 90405   12/11/1992  5/8/2050       True    
#>  6         99 90406   12/11/1992  5/8/2050       True    
#>  7         99 90407   12/11/1992  5/8/2050       True    
#>  8         99 90408   12/11/1992  5/8/2050       True    
#>  9         99 90409   12/11/1992  5/8/2050       True    
#> 10         99 90410   12/11/1992  5/8/2050       True    
#> # ... with 1,396 more rows
cimis_spatial_zipcode()
#> # A tibble: 1,715 x 4
#>    ZipCode ConnectDate DisconnectDate IsActive
#>    <chr>   <chr>       <chr>          <chr>   
#>  1 85328   2/20/2003   12/31/2030     True    
#>  2 85334   2/20/2003   12/31/2030     True    
#>  3 85344   2/20/2003   12/31/2030     True    
#>  4 85364   2/20/2003   12/31/2030     True    
#>  5 85365   2/20/2003   12/31/2030     True    
#>  6 86440   2/20/2003   12/31/2030     True    
#>  7 89003   2/20/2003   12/31/2030     True    
#>  8 89010   2/20/2003   12/31/2030     True    
#>  9 89013   2/20/2003   12/31/2030     True    
#> 10 89019   2/20/2003   12/31/2030     True    
#> # ... with 1,705 more rows
```

Once the stations or regions of interest are identified, 
you can retrieve data using `cimis_data()`:


```r
cimis_data(targets = 170, start.date = "2018-09-25", end.date = "2018-10-01")
#> # A tibble: 98 x 13
#>    Name  Type  Owner Date       Julian Station Standard ZipCodes Scope Item 
#>    <chr> <chr> <chr> <date>      <int> <chr>   <chr>    <chr>    <chr> <chr>
#>  1 cimis stat~ wate~ 2018-09-25    268 170     english  94529, ~ daily DayA~
#>  2 cimis stat~ wate~ 2018-09-25    268 170     english  94529, ~ daily DayA~
#>  3 cimis stat~ wate~ 2018-09-25    268 170     english  94529, ~ daily DayA~
#>  4 cimis stat~ wate~ 2018-09-25    268 170     english  94529, ~ daily DayD~
#>  5 cimis stat~ wate~ 2018-09-25    268 170     english  94529, ~ daily DayA~
#>  6 cimis stat~ wate~ 2018-09-25    268 170     english  94529, ~ daily DayP~
#>  7 cimis stat~ wate~ 2018-09-25    268 170     english  94529, ~ daily DayR~
#>  8 cimis stat~ wate~ 2018-09-25    268 170     english  94529, ~ daily DayR~
#>  9 cimis stat~ wate~ 2018-09-25    268 170     english  94529, ~ daily DayR~
#> 10 cimis stat~ wate~ 2018-09-25    268 170     english  94529, ~ daily DayS~
#> # ... with 88 more rows, and 3 more variables: Value <dbl>, Qc <chr>,
#> #   Unit <chr>
```
…
When hourly data is retrieved, an additional column `"Hour"` is 
returned. If both hourly and daily data items are requested,
the `"Hour"` column will be filled with `NA` values for the daily 
data items. The `cimis_to_datetime()` function provides a quick way to 
combine the columns `"Date"` and `"Hour"` to a single `"Datetime"` column. 
Note that when mixed daily and hourly data is present in the dataframe, 
the daily values are assumed to correspond to midnight (00:00).


```r
cimis_to_datetime(cimis_data(targets = 170, start.date = "2018-09-25",
  end.date = "2018-09-27", items = c("hly-soil-tmp", "day-air-tmp-avg")))
#> # A tibble: 75 x 13
#>    Name  Type  Owner Datetime            Julian Station Standard ZipCodes Scope
#>    <chr> <chr> <chr> <dttm>               <int> <chr>   <chr>    <chr>    <chr>
#>  1 cimis stat~ wate~ 2018-09-25 00:00:00    268 170     english  94529, ~ daily
#>  2 cimis stat~ wate~ 2018-09-26 00:00:00    269 170     english  94529, ~ daily
#>  3 cimis stat~ wate~ 2018-09-27 00:00:00    270 170     english  94529, ~ daily
#>  4 cimis stat~ wate~ 2018-09-25 01:00:00    268 170     english  94529, ~ hour~
#>  5 cimis stat~ wate~ 2018-09-25 02:00:00    268 170     english  94529, ~ hour~
#>  6 cimis stat~ wate~ 2018-09-25 03:00:00    268 170     english  94529, ~ hour~
#>  7 cimis stat~ wate~ 2018-09-25 04:00:00    268 170     english  94529, ~ hour~
#>  8 cimis stat~ wate~ 2018-09-25 05:00:00    268 170     english  94529, ~ hour~
#>  9 cimis stat~ wate~ 2018-09-25 06:00:00    268 170     english  94529, ~ hour~
#> 10 cimis stat~ wate~ 2018-09-25 07:00:00    268 170     english  94529, ~ hour~
#> # ... with 65 more rows, and 4 more variables: Item <chr>, Value <dbl>,
#> #   Qc <chr>, Unit <chr>
```
…
